{
    "columns": [
        {
            "permission":"permission",
            "authorization":"DELETE_USER",
            "type": "checkbox",
            "isHover": "true",
            "label": "",
            "headerClass": "checkbox-class",
            "valueClass": "checkbox-class"
        },
        {
            "id": "id",
            "label": "Name",
            "type": "iconWithText",
            "keyPath":"firstName",
            "headerClass": "name-header",
            "valueClass": "bold-text",
            "className": "image"
        },
        {
            "id": "id",
            "label": "Email",
            "type": "text",
            "keyPath":"email",
            "headerClass":"regular-text",
            "valueClass":"regular-text",
            "className": "image"
        },
        {
            "label": "Role",
            "name": "roleId",
            "type": "select",
            "options": [],
            "placeholder": "Role",
            "className": "role",
            "headerClass":"regular-text",
            "valueClass":"regular-text",
            "keyPath": "roles[0].id",
            "permission":"permission",
            "authorization":"UPDATE_ROLE"
        },
        {
            "label": "Role",
            "name": "roleId",
            "type": "text",
            "className": "role",
            "headerClass":"regular-text",
            "valueClass":"regular-text",
            "permission":"permission",
            "keyPath": "roles[0].name",
            "authorization":"VIEW_ALL_USERS"
        },
        {
            "label": "",
            "type": "icon",
            "action":"delete",
            "icon": "DeleteOutlinedIcon",
            "headerClass":"regular-text",
            "valueClass":"regular-text"
        }
    ],
    "records": "Records",
    "noDataMessage": "No users found",
    "searching": true,
    "pagination": false,
    "sorting": false,
    "defaultSorting": "",
    "rowsPerPage": 20,
    "numberOfElements": "numberOfElements"
}