{
  "metadata": {},
  "name": "",
  "displayName": "",
  "description": "",
  "type": "Integer",
  "constraints": {
    "min": 10,
    "max": 20,
    "unique": false,
    "required": true,
    "primary": false
  },
  "reference": null,
  "precision": 0,
  "scale": 0
}