{
    "columns": [
      {
        "label": "Name",
        "keyPath":"name",
        "type":"text",
        "headerClass":"name-header",
        "valueClass":"bold-text"
      },
      {
        "label": "Description",
        "keyPath":"description",
        "type":"text",
        "headerClass":"regular-text",
        "valueClass":"regular-text"
        
      }
    ],
    "noDataMessage": "No Continuous Deployment found",
    "searching": false,
    "pagination": false,
    "sorting": false,
    "defaultSorting":"",
    "rowsPerPage":20
  }