{
    "fields": [
        {
            "attributeName": "name",
            "className": "platform-name"
        },
        {
            "attributeName": "Edit",
            "className": "edit",
            "iconClass": "icon",
            "labelClass": "edit-label",
            "icon": "Edit"
        },
        {
            "attributeName": "Details",
            "className": "card-sub-heading",
            "children": [
                {
                    "attributeName": "name",
                    "label":"Name",
                    "className": "label",
                    "content_class": "content"
                },
                {
                    "attributeName": "description",
                    "label":"Description",
                    "className": "label",
                    "content_class": "content"
                }
            ]
        },
        {
          "attributeName": "API configuration",
          "className": "card-sub-heading",
          "apiConfig":"apiConfiguration",
          "apiConfigChildren": [
              {
                  "attributeName": "accountName",
                  "label":"Account name",
                  "className": "label",
                  "content_class": "content"
              },
              {
                  "attributeName": "userName",
                  "label":"Username",
                  "className": "label",
                  "content_class": "content"
              },
              {
                  "attributeName": "personalAccessToken",
                  "label":"Personal access token",
                  "className": "label",
                  "content_class": "content"
              }
          ]
      },
      {
          "attributeName": "API endpoints",
          "className": "card-sub-heading",
          "endPoints":"endpoints",
          "endApiConfig":"apiConfiguration",
          "endPointChildren": [
              {
                  "attributeName": "name",
                  "label":"Name",
                  "className": "table-label",
                  "content_class": "content"
              },
              {
                  "attributeName": "endpoint",
                  "label":"End point",
                  "className": "table-label",
                  "content_class": "content"
              }
          ]
      },
      {
          "attributeName": "API metadata",
          "className": "card-sub-heading",
          "apiMetadata":"metadata",
          "metaDataApiConfig":"apiConfiguration",
          "keyClass":"version-key",
          "valueClass":"version-value",
          "metaDataClass":"meta-data"
      },
      {
        "attributeName": "Channel configuration",
        "className": "card-sub-heading",
        "channelConfig":"channelConfiguration",
        "channelConfigChildren": [
            {
                "attributeName": "channelName",
                "label":"Channel Name",
                "className": "label",
                "content_class": "content"
            }
        ]
    },
    {
        "attributeName": "Repository metadata",
        "className": "card-sub-heading",
        "metadata":"metadata",
        "metaDataClass":"meta-data",
        "keyClass":"version-key",
        "valueClass":"version-value"
    }
    ]
  }