{
    "formHeader": {
        "formHeading": "Add platform",
        "className": "form-heading",
        "divider": {
            "divider":true,
            "className":"form-divider"
        }
    },
    "showAccordian":false,
    "section": [
        {
            "subHeader": {
                "subHeading": "addPlatform:PLATFORM_DETAILS",
                "className": "section-heading"
            },
            "type": "simpleForm",
            "className": "form-fields",
            "inputFields": [
                {
                    "type": "version",
                    "placeholder": "addPlatform:PLATFORM_VERSIONS_PLACEHOLDER",
                    "label":"addPlatform:PLATFORM_VERSIONS",
                    "required": true,
                    "autoFocus": true,
                    "name":"versions" 
                },
                {
                    "label": "addPlatform:PLATFORM_DESCRIPTION",
                    "type": "textarea",
                    "name": "description",
                    "placeholder": "addPlatform:PLATFORM_DESCRIPTION_PLACEHOLDER",
                    "errorClass":"invalid-message",
                    "inputErrorClass":"input-error"
                }
            ],
            "divider": false
        },
        {
            "subHeader": {
                "subHeading": "addPlatform:PLATFORM_METADATA",
                "className": "section-heading"
            },
            "type": "simpleForm",
            "inputFields": [
                {
                    "name": "metadata",
                    "type": "metadata"
                }
            ],
            "divider": false
        }
    ]
}