[{
    "name": "",
    "metadata": {
        "createDatabase": true
    },
    "schemas": [{
        "name": "default",
        "tables": [{
            "name": "User",
            "displayName": "Users",
            "attributes": [{
                    "metadata": {},
                    "name": "id",
                    "displayName": "userid",
                    "description": "Unique identifier of the user.",
                    "type": "Integer",
                    "constraints": {
                        "primary": true,
                        "unique": false,
                        "required": true,
                        "min": null,
                        "max": null
                    },
                    "generator": null,
                    "precision": null,
                    "scale": null,
                    "reference": null,
                    "lookup": null,
                    "overrides": null
                },
                {
                    "metadata": {},
                    "name": "username",
                    "displayName": "UserName",
                    "description": "User name of the user.",
                    "type": "String",
                    "constraints": {
                        "primary": false,
                        "unique": false,
                        "required": true,
                        "pattern": "",
                        "min": null,
                        "max": null,
                        "length": 32
                    },
                    "generator": null,
                    "precision": null,
                    "scale": null,
                    "reference": null,
                    "lookup": null,
                    "overrides": null
                },
                {
                    "metadata": {},
                    "name": "password",
                    "displayName": "Password",
                    "description": "Password of the user.",
                    "type": "String",
                    "constraints": {
                        "primary": false,
                        "unique": false,
                        "required": true,
                        "pattern": "",
                        "min": null,
                        "max": null,
                        "length": null
                    },
                    "generator": null,
                    "precision": null,
                    "scale": null,
                    "reference": null,
                    "lookup": null,
                    "overrides": null
                }
            ]
        }]
    }]
}]